%YAML 1.1
%TAG !u! tag:unity3d.com,2011:
--- !u!1001 &7073878455056799627
PrefabInstance:
  m_ObjectHideFlags: 0
  serializedVersion: 2
  m_Modification:
    m_TransformParent: {fileID: 0}
    m_Modifications:
    - target: {fileID: 514572812311893999, guid: b21711745b476ea4a998aa6ba0d1894c, type: 3}
      propertyPath: m_RootOrder
      value: 0
      objectReference: {fileID: 0}
    - target: {fileID: 514572812311893999, guid: b21711745b476ea4a998aa6ba0d1894c, type: 3}
      propertyPath: m_LocalPosition.x
      value: -25.35
      objectReference: {fileID: 0}
    - target: {fileID: 514572812311893999, guid: b21711745b476ea4a998aa6ba0d1894c, type: 3}
      propertyPath: m_LocalPosition.y
      value: -2.05
      objectReference: {fileID: 0}
    - target: {fileID: 514572812311893999, guid: b21711745b476ea4a998aa6ba0d1894c, type: 3}
      propertyPath: m_LocalPosition.z
      value: -9.47
      objectReference: {fileID: 0}
    - target: {fileID: 514572812311893999, guid: b21711745b476ea4a998aa6ba0d1894c, type: 3}
      propertyPath: m_LocalRotation.w
      value: 0.7071068
      objectReference: {fileID: 0}
    - target: {fileID: 514572812311893999, guid: b21711745b476ea4a998aa6ba0d1894c, type: 3}
      propertyPath: m_LocalRotation.x
      value: -0.7071068
      objectReference: {fileID: 0}
    - target: {fileID: 514572812311893999, guid: b21711745b476ea4a998aa6ba0d1894c, type: 3}
      propertyPath: m_LocalRotation.y
      value: 0
      objectReference: {fileID: 0}
    - target: {fileID: 514572812311893999, guid: b21711745b476ea4a998aa6ba0d1894c, type: 3}
      propertyPath: m_LocalRotation.z
      value: 0
      objectReference: {fileID: 0}
    - target: {fileID: 514572812311893999, guid: b21711745b476ea4a998aa6ba0d1894c, type: 3}
      propertyPath: m_LocalEulerAnglesHint.x
      value: -90
      objectReference: {fileID: 0}
    - target: {fileID: 514572812311893999, guid: b21711745b476ea4a998aa6ba0d1894c, type: 3}
      propertyPath: m_LocalEulerAnglesHint.y
      value: 0
      objectReference: {fileID: 0}
    - target: {fileID: 514572812311893999, guid: b21711745b476ea4a998aa6ba0d1894c, type: 3}
      propertyPath: m_LocalEulerAnglesHint.z
      value: 0
      objectReference: {fileID: 0}
    - target: {fileID: 5249487473849878903, guid: b21711745b476ea4a998aa6ba0d1894c, type: 3}
      propertyPath: InitialModule.startColor.maxColor.b
      value: 1
      objectReference: {fileID: 0}
    - target: {fileID: 5249487473849878903, guid: b21711745b476ea4a998aa6ba0d1894c, type: 3}
      propertyPath: InitialModule.startColor.maxColor.g
      value: 0.56795466
      objectReference: {fileID: 0}
    - target: {fileID: 5249487473849878903, guid: b21711745b476ea4a998aa6ba0d1894c, type: 3}
      propertyPath: InitialModule.startColor.maxColor.r
      value: 0.19215685
      objectReference: {fileID: 0}
    - target: {fileID: 6407830388459724736, guid: b21711745b476ea4a998aa6ba0d1894c, type: 3}
      propertyPath: m_Name
      value: Electricspark
      objectReference: {fileID: 0}
    m_RemovedComponents: []
  m_SourcePrefab: {fileID: 100100000, guid: b21711745b476ea4a998aa6ba0d1894c, type: 3}
